﻿.. ==================================================
.. FOR YOUR INFORMATION
.. --------------------------------------------------
.. -*- coding: utf-8 -*- with BOM.

.. This is 'Includes.txt'. It is included at the very top of each and
   every ReST source file in this documentation project (= manual).

.. ==================================================
.. DEFINE SOME TEXTROLES
.. --------------------------------------------------

.. role::   typoscript(code)

.. role::   ts(typoscript)
   :class:  typoscript

.. role::   php(code)

.. highlight:: guess
